…
``` r
brfss_df = 
  brfss_smart2010 %>%
  janitor::clean_names() %>% #format the data to use appropriate variable names;
  mutate(topic = "Overall Health") %>% #focus on the “Overall Health” topic
  filter(response %in% c("Excellent","Very good","Good","Fair", "Poor")) %>%  #include only responses from “Excellent” to “Poor”
  mutate(
    response = forcats::fct_relevel(response, c("Excellent","Very good","Good","Fair", "Poor"))) %>% 
  arrange(desc(response)) #organize responses as a factor taking levels ordered from “Poor” to “Excellent”
brfss_df
```

    ## # A tibble: 10,625 × 23
    ##     year locationabbr locationdesc  class  topic  question  response sample_size
    ##    <int> <chr>        <chr>         <chr>  <chr>  <chr>     <fct>          <int>
    ##  1  2010 AL           AL - Jeffers… Healt… Overa… How is y… Poor              45
    ##  2  2010 AL           AL - Mobile … Healt… Overa… How is y… Poor              66
    ##  3  2010 AL           AL - Tuscalo… Healt… Overa… How is y… Poor              35
    ##  4  2010 AZ           AZ - Maricop… Healt… Overa… How is y… Poor              62
    ##  5  2010 AZ           AZ - Pima Co… Healt… Overa… How is y… Poor              49
    ##  6  2010 AZ           AZ - Pinal C… Healt… Overa… How is y… Poor              30
    ##  7  2010 AR           AR - Benton … Healt… Overa… How is y… Poor              21
    ##  8  2010 AR           AR - Pulaski… Healt… Overa… How is y… Poor              36
    ##  9  2010 AR           AR - Washing… Healt… Overa… How is y… Poor              16
    ## 10  2010 CA           CA - Alameda… Healt… Overa… How is y… Poor              23
    ## # … with 10,615 more rows, and 15 more variables: data_value <dbl>,
    ## #   confidence_limit_low <dbl>, confidence_limit_high <dbl>,
    ## #   display_order <int>, data_value_unit <chr>, data_value_type <chr>,
    ## #   data_value_footnote_symbol <chr>, data_value_footnote <chr>,
    ## #   data_source <chr>, class_id <chr>, topic_id <chr>, location_id <chr>,
    ## #   question_id <chr>, respid <chr>, geo_location <chr>
…
In 2002, state CT, FL, MA, NC,NJ, PA were observed at 7 or more
locations. In 2010, state CA, CO, FL, MA, MD, NC, NE, NJ, NY, OH, PA,
SC, TX, WA were observed at 7 or more locations.

``` r
excellent_df = 
  brfss_df %>%
  filter(response == 'Excellent') %>% #dataset that is limited to Excellent responses
  group_by(locationabbr, year) %>%
  summarize(mean_data = mean(data_value)) #averages the data_value across locations within a state.
excellent_df  
```

    ## # A tibble: 443 × 3
    ## # Groups:   locationabbr [51]
    ##    locationabbr  year mean_data
    ##    <chr>        <int>     <dbl>
    ##  1 AK            2002      27.9
    ##  2 AK            2003      24.8
    ##  3 AK            2004      23.0
    ##  4 AK            2005      23.8
    ##  5 AK            2007      23.5
    ##  6 AK            2008      20.6
    ##  7 AK            2009      23.2
    ##  8 AL            2002      18.5
    ##  9 AL            2003      19.5
    ## 10 AL            2004      20  
    ## # … with 433 more rows
…
